[
 {
  "desk_access": 1,
  "disabled": 0,
  "docstatus": 0,
  "doctype": "Role",
  "modified": "2019-12-23 17:46:29.554405",
  "name": "All",
  "parent": null,
  "parentfield": null,
  "parenttype": null,
  "restrict_to_domain": null,
  "role_name": "All",
  "two_factor_auth": 0
 },
 {
  "desk_access": 1,
  "disabled": 0,
  "docstatus": 0,
  "doctype": "Role",
  "modified": "2019-12-23 17:46:29.561079",
  "name": "Guest",
  "parent": null,
  "parentfield": null,
  "parenttype": null,
  "restrict_to_domain": null,
  "role_name": "Guest",
  "two_factor_auth": 0
 },
 {
  "desk_access": 1,
  "disabled": 0,
  "docstatus": 0,
  "doctype": "Role",
  "modified": "2019-12-23 17:46:29.650717",
  "name": "Administrator",
  "parent": null,
  "parentfield": null,
  "parenttype": null,
  "restrict_to_domain": null,
  "role_name": "Administrator",
  "two_factor_auth": 0
 },
 {
  "desk_access": 1,
  "disabled": 0,
  "docstatus": 0,
  "doctype": "Role",
  "modified": "2019-12-23 17:46:29.657290",
  "name": "System Manager",
  "parent": null,
  "parentfield": null,
  "parenttype": null,
  "restrict_to_domain": null,
  "role_name": "System Manager",
  "two_factor_auth": 0
 },
 {
  "desk_access": 1,
  "disabled": 0,
  "docstatus": 0,
  "doctype": "Role",
  "modified": "2019-12-23 17:46:33.711666",
  "name": "Website Manager",
  "parent": null,
  "parentfield": null,
  "parenttype": null,
  "restrict_to_domain": null,
  "role_name": "Website Manager",
  "two_factor_auth": 0
 },
 {
  "desk_access": 1,
  "disabled": 0,
  "docstatus": 0,
  "doctype": "Role",
  "modified": "2019-12-23 17:47:05.501081",
  "name": "Script Manager",
  "parent": null,
  "parentfield": null,
  "parenttype": null,
  "restrict_to_domain": null,
  "role_name": "Script Manager",
  "two_factor_auth": 0
 },
 {
  "desk_access": 1,
  "disabled": 0,
  "docstatus": 0,
  "doctype": "Role",
  "modified": "2019-12-23 17:47:06.128881",
  "name": "Report Manager",
  "parent": null,
  "parentfield": null,
  "parenttype": null,
  "restrict_to_domain": null,
  "role_name": "Report Manager",
  "two_factor_auth": 0
 },
 {
  "desk_access": 1,
  "disabled": 0,
  "docstatus": 0,
  "doctype": "Role",
  "modified": "2019-12-23 17:47:13.637736",
  "name": "Blogger",
  "parent": null,
  "parentfield": null,
  "parenttype": null,
  "restrict_to_domain": null,
  "role_name": "Blogger",
  "two_factor_auth": 0
 },
 {
  "desk_access": 1,
  "disabled": 0,
  "docstatus": 0,
  "doctype": "Role",
  "modified": "2019-12-23 17:47:14.377638",
  "name": "Knowledge Base Contributor",
  "parent": null,
  "parentfield": null,
  "parenttype": null,
  "restrict_to_domain": null,
  "role_name": "Knowledge Base Contributor",
  "two_factor_auth": 0
 },
 {
  "desk_access": 1,
  "disabled": 0,
  "docstatus": 0,
  "doctype": "Role",
  "modified": "2019-12-23 17:47:14.470309",
  "name": "Knowledge Base Editor",
  "parent": null,
  "parentfield": null,
  "parenttype": null,
  "restrict_to_domain": null,
  "role_name": "Knowledge Base Editor",
  "two_factor_auth": 0
 },
 {
  "desk_access": 1,
  "disabled": 0,
  "docstatus": 0,
  "doctype": "Role",
  "modified": "2019-12-23 17:47:34.395512",
  "name": "Newsletter Manager",
  "parent": null,
  "parentfield": null,
  "parenttype": null,
  "restrict_to_domain": null,
  "role_name": "Newsletter Manager",
  "two_factor_auth": 0
 },
 {
  "desk_access": 1,
  "disabled": 0,
  "docstatus": 0,
  "doctype": "Role",
  "modified": "2019-12-23 17:47:42.435549",
  "name": "Purchase User",
  "parent": null,
  "parentfield": null,
  "parenttype": null,
  "restrict_to_domain": null,
  "role_name": "Purchase User",
  "two_factor_auth": 0
 },
 {
  "desk_access": 1,
  "disabled": 0,
  "docstatus": 0,
  "doctype": "Role",
  "modified": "2019-12-23 17:47:42.441038",
  "name": "Accounts User",
  "parent": null,
  "parentfield": null,
  "parenttype": null,
  "restrict_to_domain": null,
  "role_name": "Accounts User",
  "two_factor_auth": 0
 },
 {
  "desk_access": 1,
  "disabled": 0,
  "docstatus": 0,
  "doctype": "Role",
  "modified": "2019-12-23 17:47:42.445775",
  "name": "Sales User",
  "parent": null,
  "parentfield": null,
  "parenttype": null,
  "restrict_to_domain": null,
  "role_name": "Sales User",
  "two_factor_auth": 0
 },
 {
  "desk_access": 1,
  "disabled": 0,
  "docstatus": 0,
  "doctype": "Role",
  "modified": "2019-12-23 17:48:18.228459",
  "name": "Purchase Master Manager",
  "parent": null,
  "parentfield": null,
  "parenttype": null,
  "restrict_to_domain": null,
  "role_name": "Purchase Master Manager",
  "two_factor_auth": 0
 },
 {
  "desk_access": 1,
  "disabled": 0,
  "docstatus": 0,
  "doctype": "Role",
  "modified": "2019-12-23 17:48:18.232570",
  "name": "Accounts Manager",
  "parent": null,
  "parentfield": null,
  "parenttype": null,
  "restrict_to_domain": null,
  "role_name": "Accounts Manager",
  "two_factor_auth": 0
 },
 {
  "desk_access": 1,
  "disabled": 0,
  "docstatus": 0,
  "doctype": "Role",
  "modified": "2019-12-23 17:48:18.236083",
  "name": "Sales Master Manager",
  "parent": null,
  "parentfield": null,
  "parenttype": null,
  "restrict_to_domain": null,
  "role_name": "Sales Master Manager",
  "two_factor_auth": 0
 },
 {
  "desk_access": 1,
  "disabled": 0,
  "docstatus": 0,
  "doctype": "Role",
  "modified": "2019-12-23 17:48:18.334207",
  "name": "Purchase Manager",
  "parent": null,
  "parentfield": null,
  "parenttype": null,
  "restrict_to_domain": null,
  "role_name": "Purchase Manager",
  "two_factor_auth": 0
 },
 {
  "desk_access": 1,
  "disabled": 0,
  "docstatus": 0,
  "doctype": "Role",
  "modified": "2019-12-23 17:48:18.340993",
  "name": "Maintenance Manager",
  "parent": null,
  "parentfield": null,
  "parenttype": null,
  "restrict_to_domain": null,
  "role_name": "Maintenance Manager",
  "two_factor_auth": 0
 },
 {
  "desk_access": 1,
  "disabled": 0,
  "docstatus": 0,
  "doctype": "Role",
  "modified": "2019-12-23 17:48:18.346787",
  "name": "Maintenance User",
  "parent": null,
  "parentfield": null,
  "parenttype": null,
  "restrict_to_domain": null,
  "role_name": "Maintenance User",
  "two_factor_auth": 0
 },
 {
  "desk_access": 1,
  "disabled": 0,
  "docstatus": 0,
  "doctype": "Role",
  "modified": "2019-12-23 17:48:18.354112",
  "name": "Sales Manager",
  "parent": null,
  "parentfield": null,
  "parenttype": null,
  "restrict_to_domain": null,
  "role_name": "Sales Manager",
  "two_factor_auth": 0
 },
 {
  "desk_access": 1,
  "disabled": 0,
  "docstatus": 0,
  "doctype": "Role",
  "modified": "2019-12-23 17:48:42.592080",
  "name": "Translator",
  "parent": null,
  "parentfield": null,
  "parenttype": null,
  "restrict_to_domain": null,
  "role_name": "Translator",
  "two_factor_auth": 0
 },
 {
  "desk_access": 1,
  "disabled": 0,
  "docstatus": 0,
  "doctype": "Role",
  "modified": "2019-12-23 17:50:57.984701",
  "name": "Auditor",
  "parent": null,
  "parentfield": null,
  "parenttype": null,
  "restrict_to_domain": null,
  "role_name": "Auditor",
  "two_factor_auth": 0
 },
 {
  "desk_access": 1,
  "disabled": 0,
  "docstatus": 0,
  "doctype": "Role",
  "modified": "2019-12-23 17:51:35.921451",
  "name": "Employee",
  "parent": null,
  "parentfield": null,
  "parenttype": null,
  "restrict_to_domain": null,
  "role_name": "Employee",
  "two_factor_auth": 0
 },
 {
  "desk_access": 1,
  "disabled": 0,
  "docstatus": 0,
  "doctype": "Role",
  "modified": "2019-12-23 17:51:35.928469",
  "name": "Stock User",
  "parent": null,
  "parentfield": null,
  "parenttype": null,
  "restrict_to_domain": null,
  "role_name": "Stock User",
  "two_factor_auth": 0
 },
 {
  "desk_access": 1,
  "disabled": 0,
  "docstatus": 0,
  "doctype": "Role",
  "modified": "2019-12-23 17:52:33.245478",
  "name": "HR Manager",
  "parent": null,
  "parentfield": null,
  "parenttype": null,
  "restrict_to_domain": null,
  "role_name": "HR Manager",
  "two_factor_auth": 0
 },
 {
  "desk_access": 1,
  "disabled": 0,
  "docstatus": 0,
  "doctype": "Role",
  "modified": "2019-12-23 17:52:41.830324",
  "name": "Manufacturing Manager",
  "parent": null,
  "parentfield": null,
  "parenttype": null,
  "restrict_to_domain": null,
  "role_name": "Manufacturing Manager",
  "two_factor_auth": 0
 },
 {
  "desk_access": 1,
  "disabled": 0,
  "docstatus": 0,
  "doctype": "Role",
  "modified": "2019-12-23 17:52:54.771077",
  "name": "Stock Manager",
  "parent": null,
  "parentfield": null,
  "parenttype": null,
  "restrict_to_domain": null,
  "role_name": "Stock Manager",
  "two_factor_auth": 0
 },
 {
  "desk_access": 1,
  "disabled": 0,
  "docstatus": 0,
  "doctype": "Role",
  "modified": "2019-12-23 17:52:56.977553",
  "name": "Projects User",
  "parent": null,
  "parentfield": null,
  "parenttype": null,
  "restrict_to_domain": null,
  "role_name": "Projects User",
  "two_factor_auth": 0
 },
 {
  "desk_access": 1,
  "disabled": 0,
  "docstatus": 0,
  "doctype": "Role",
  "modified": "2019-12-23 17:53:00.100597",
  "name": "HR User",
  "parent": null,
  "parentfield": null,
  "parenttype": null,
  "restrict_to_domain": null,
  "role_name": "HR User",
  "two_factor_auth": 0
 },
 {
  "desk_access": 1,
  "disabled": 0,
  "docstatus": 0,
  "doctype": "Role",
  "modified": "2019-12-23 17:53:00.106925",
  "name": "Manufacturing User",
  "parent": null,
  "parentfield": null,
  "parenttype": null,
  "restrict_to_domain": null,
  "role_name": "Manufacturing User",
  "two_factor_auth": 0
 },
 {
  "desk_access": 1,
  "disabled": 0,
  "docstatus": 0,
  "doctype": "Role",
  "modified": "2019-12-23 17:53:01.228780",
  "name": "Projects Manager",
  "parent": null,
  "parentfield": null,
  "parenttype": null,
  "restrict_to_domain": null,
  "role_name": "Projects Manager",
  "two_factor_auth": 0
 },
 {
  "desk_access": 1,
  "disabled": 0,
  "docstatus": 0,
  "doctype": "Role",
  "modified": "2019-12-23 17:53:42.997158",
  "name": "Item Manager",
  "parent": null,
  "parentfield": null,
  "parenttype": null,
  "restrict_to_domain": null,
  "role_name": "Item Manager",
  "two_factor_auth": 0
 },
 {
  "desk_access": 1,
  "disabled": 0,
  "docstatus": 0,
  "doctype": "Role",
  "modified": "2019-12-23 17:53:57.308698",
  "name": "Fleet Manager",
  "parent": null,
  "parentfield": null,
  "parenttype": null,
  "restrict_to_domain": null,
  "role_name": "Fleet Manager",
  "two_factor_auth": 0
 },
 {
  "desk_access": 1,
  "disabled": 0,
  "docstatus": 0,
  "doctype": "Role",
  "modified": "2019-12-23 17:54:10.941262",
  "name": "Academics User",
  "parent": null,
  "parentfield": null,
  "parenttype": null,
  "restrict_to_domain": null,
  "role_name": "Academics User",
  "two_factor_auth": 0
 },
 {
  "desk_access": 1,
  "disabled": 0,
  "docstatus": 0,
  "doctype": "Role",
  "modified": "2019-12-23 17:55:02.789531",
  "name": "Expense Approver",
  "parent": null,
  "parentfield": null,
  "parenttype": null,
  "restrict_to_domain": null,
  "role_name": "Expense Approver",
  "two_factor_auth": 0
 },
 {
  "desk_access": 1,
  "disabled": 0,
  "docstatus": 0,
  "doctype": "Role",
  "modified": "2019-12-23 17:55:26.053287",
  "name": "Leave Approver",
  "parent": null,
  "parentfield": null,
  "parenttype": null,
  "restrict_to_domain": null,
  "role_name": "Leave Approver",
  "two_factor_auth": 0
 },
 {
  "desk_access": 1,
  "disabled": 0,
  "docstatus": 0,
  "doctype": "Role",
  "modified": "2019-12-23 17:56:17.385885",
  "name": "Fulfillment User",
  "parent": null,
  "parentfield": null,
  "parenttype": null,
  "restrict_to_domain": null,
  "role_name": "Fulfillment User",
  "two_factor_auth": 0
 },
 {
  "desk_access": 1,
  "disabled": 0,
  "docstatus": 0,
  "doctype": "Role",
  "modified": "2019-12-23 17:56:26.010548",
  "name": "Quality Manager",
  "parent": null,
  "parentfield": null,
  "parenttype": null,
  "restrict_to_domain": null,
  "role_name": "Quality Manager",
  "two_factor_auth": 0
 },
 {
  "desk_access": 1,
  "disabled": 0,
  "docstatus": 0,
  "doctype": "Role",
  "modified": "2019-12-23 17:57:02.116177",
  "name": "Support Team",
  "parent": null,
  "parentfield": null,
  "parenttype": null,
  "restrict_to_domain": null,
  "role_name": "Support Team",
  "two_factor_auth": 0
 },
 {
  "desk_access": 1,
  "disabled": 0,
  "docstatus": 0,
  "doctype": "Role",
  "modified": "2019-12-23 17:57:19.179128",
  "name": "Agriculture User",
  "parent": null,
  "parentfield": null,
  "parenttype": null,
  "restrict_to_domain": null,
  "role_name": "Agriculture User",
  "two_factor_auth": 0
 },
 {
  "desk_access": 1,
  "disabled": 0,
  "docstatus": 0,
  "doctype": "Role",
  "modified": "2019-12-23 17:57:19.190148",
  "name": "Agriculture Manager",
  "parent": null,
  "parentfield": null,
  "parenttype": null,
  "restrict_to_domain": null,
  "role_name": "Agriculture Manager",
  "two_factor_auth": 0
 },
 {
  "desk_access": 1,
  "disabled": 0,
  "docstatus": 0,
  "doctype": "Role",
  "modified": "2019-12-23 17:57:36.301890",
  "name": "Instructor",
  "parent": null,
  "parentfield": null,
  "parenttype": null,
  "restrict_to_domain": null,
  "role_name": "Instructor",
  "two_factor_auth": 0
 },
 {
  "desk_access": 1,
  "disabled": 0,
  "docstatus": 0,
  "doctype": "Role",
  "modified": "2019-12-23 17:57:43.513655",
  "name": "Education Manager",
  "parent": null,
  "parentfield": null,
  "parenttype": null,
  "restrict_to_domain": null,
  "role_name": "Education Manager",
  "two_factor_auth": 0
 },
 {
  "desk_access": 1,
  "disabled": 0,
  "docstatus": 0,
  "doctype": "Role",
  "modified": "2019-12-23 17:57:44.499762",
  "name": "Student",
  "parent": null,
  "parentfield": null,
  "parenttype": null,
  "restrict_to_domain": null,
  "role_name": "Student",
  "two_factor_auth": 0
 },
 {
  "desk_access": 1,
  "disabled": 0,
  "docstatus": 0,
  "doctype": "Role",
  "modified": "2019-12-23 17:57:52.255259",
  "name": "LMS User",
  "parent": null,
  "parentfield": null,
  "parenttype": null,
  "restrict_to_domain": null,
  "role_name": "LMS User",
  "two_factor_auth": 0
 },
 {
  "desk_access": 1,
  "disabled": 0,
  "docstatus": 0,
  "doctype": "Role",
  "modified": "2019-12-23 17:58:43.584110",
  "name": "Laboratory User",
  "parent": null,
  "parentfield": null,
  "parenttype": null,
  "restrict_to_domain": null,
  "role_name": "Laboratory User",
  "two_factor_auth": 0
 },
 {
  "desk_access": 1,
  "disabled": 0,
  "docstatus": 0,
  "doctype": "Role",
  "modified": "2019-12-23 17:58:43.589657",
  "name": "Healthcare Administrator",
  "parent": null,
  "parentfield": null,
  "parenttype": null,
  "restrict_to_domain": null,
  "role_name": "Healthcare Administrator",
  "two_factor_auth": 0
 },
 {
  "desk_access": 1,
  "disabled": 0,
  "docstatus": 0,
  "doctype": "Role",
  "modified": "2019-12-23 17:58:44.645604",
  "name": "Physician",
  "parent": null,
  "parentfield": null,
  "parenttype": null,
  "restrict_to_domain": null,
  "role_name": "Physician",
  "two_factor_auth": 0
 },
 {
  "desk_access": 1,
  "disabled": 0,
  "docstatus": 0,
  "doctype": "Role",
  "modified": "2019-12-23 17:58:47.912816",
  "name": "Nursing User",
  "parent": null,
  "parentfield": null,
  "parenttype": null,
  "restrict_to_domain": null,
  "role_name": "Nursing User",
  "two_factor_auth": 0
 },
 {
  "desk_access": 1,
  "disabled": 0,
  "docstatus": 0,
  "doctype": "Role",
  "modified": "2019-12-23 17:59:19.575356",
  "name": "LabTest Approver",
  "parent": null,
  "parentfield": null,
  "parenttype": null,
  "restrict_to_domain": null,
  "role_name": "LabTest Approver",
  "two_factor_auth": 0
 },
 {
  "desk_access": 1,
  "disabled": 0,
  "docstatus": 0,
  "doctype": "Role",
  "modified": "2019-12-23 17:59:33.980940",
  "name": "Restaurant Manager",
  "parent": null,
  "parentfield": null,
  "parenttype": null,
  "restrict_to_domain": null,
  "role_name": "Restaurant Manager",
  "two_factor_auth": 0
 },
 {
  "desk_access": 1,
  "disabled": 0,
  "docstatus": 0,
  "doctype": "Role",
  "modified": "2019-12-23 18:01:44.176764",
  "name": "Non Profit Manager",
  "parent": null,
  "parentfield": null,
  "parenttype": null,
  "restrict_to_domain": null,
  "role_name": "Non Profit Manager",
  "two_factor_auth": 0
 },
 {
  "desk_access": 1,
  "disabled": 0,
  "docstatus": 0,
  "doctype": "Role",
  "modified": "2019-12-23 18:01:45.874852",
  "name": "Non Profit Member",
  "parent": null,
  "parentfield": null,
  "parenttype": null,
  "restrict_to_domain": null,
  "role_name": "Non Profit Member",
  "two_factor_auth": 0
 },
 {
  "desk_access": 1,
  "disabled": 0,
  "docstatus": 0,
  "doctype": "Role",
  "modified": "2019-12-23 18:01:55.180923",
  "name": "Hotel Manager",
  "parent": null,
  "parentfield": null,
  "parenttype": null,
  "restrict_to_domain": null,
  "role_name": "Hotel Manager",
  "two_factor_auth": 0
 },
 {
  "desk_access": 1,
  "disabled": 0,
  "docstatus": 0,
  "doctype": "Role",
  "modified": "2019-12-23 18:01:56.535057",
  "name": "Hotel Reservation User",
  "parent": null,
  "parentfield": null,
  "parenttype": null,
  "restrict_to_domain": null,
  "role_name": "Hotel Reservation User",
  "two_factor_auth": 0
 },
 {
  "desk_access": 0,
  "disabled": 0,
  "docstatus": 0,
  "doctype": "Role",
  "modified": "2019-12-23 18:02:43.950125",
  "name": "Patient",
  "parent": null,
  "parentfield": null,
  "parenttype": null,
  "restrict_to_domain": null,
  "role_name": "Patient",
  "two_factor_auth": 0
 },
 {
  "desk_access": 0,
  "disabled": 0,
  "docstatus": 0,
  "doctype": "Role",
  "modified": "2019-12-23 18:02:43.981018",
  "name": "Supplier",
  "parent": null,
  "parentfield": null,
  "parenttype": null,
  "restrict_to_domain": null,
  "role_name": "Supplier",
  "two_factor_auth": 0
 },
 {
  "desk_access": 0,
  "disabled": 0,
  "docstatus": 0,
  "doctype": "Role",
  "modified": "2019-12-23 18:02:44.082572",
  "name": "Customer",
  "parent": null,
  "parentfield": null,
  "parenttype": null,
  "restrict_to_domain": null,
  "role_name": "Customer",
  "two_factor_auth": 0
 },
 {
  "desk_access": 0,
  "disabled": 0,
  "docstatus": 0,
  "doctype": "Role",
  "modified": "2019-12-23 18:02:44.098080",
  "name": "Non Profit Portal User",
  "parent": null,
  "parentfield": null,
  "parenttype": null,
  "restrict_to_domain": null,
  "role_name": "Non Profit Portal User",
  "two_factor_auth": 0
 },
 {
  "desk_access": 1,
  "disabled": 0,
  "docstatus": 0,
  "doctype": "Role",
  "modified": "2019-12-23 18:02:50.725156",
  "name": "Analytics",
  "parent": null,
  "parentfield": null,
  "parenttype": null,
  "restrict_to_domain": null,
  "role_name": "Analytics",
  "two_factor_auth": 0
 },
 {
  "desk_access": 1,
  "disabled": 0,
  "docstatus": 0,
  "doctype": "Role",
  "modified": "2019-12-24 15:10:34.822532",
  "name": "Operations Manager",
  "parent": null,
  "parentfield": null,
  "parenttype": null,
  "restrict_to_domain": null,
  "role_name": "Operations Manager",
  "two_factor_auth": 0
 },
 {
  "desk_access": 1,
  "disabled": 0,
  "docstatus": 0,
  "doctype": "Role",
  "modified": "2019-12-24 15:33:32.114933",
  "name": "Resource Manager",
  "parent": null,
  "parentfield": null,
  "parenttype": null,
  "restrict_to_domain": null,
  "role_name": "Resource Manager",
  "two_factor_auth": 0
 },
 {
  "desk_access": 1,
  "disabled": 0,
  "docstatus": 0,
  "doctype": "Role",
  "modified": "2019-12-24 15:37:25.488738",
  "name": "Project Lead",
  "parent": null,
  "parentfield": null,
  "parenttype": null,
  "restrict_to_domain": null,
  "role_name": "Project Lead",
  "two_factor_auth": 0
 },
 {
  "desk_access": 1,
  "disabled": 0,
  "docstatus": 0,
  "doctype": "Role",
  "modified": "2019-12-27 15:52:03.139573",
  "name": "Project Test",
  "parent": null,
  "parentfield": null,
  "parenttype": null,
  "restrict_to_domain": null,
  "role_name": "Project Test",
  "two_factor_auth": 0
 },
 {
  "desk_access": 1,
  "disabled": 0,
  "docstatus": 0,
  "doctype": "Role",
  "modified": "2019-12-31 14:55:09.206054",
  "name": "Management",
  "parent": null,
  "parentfield": null,
  "parenttype": null,
  "restrict_to_domain": null,
  "role_name": "Management",
  "two_factor_auth": 0
 }
]